Abbreviated Journal Title,ISSN,{2013} Total Cites,Impact Factor,5-Year Impact Factor,Immediacy Index,{2013} Articles,Cited Half-Life,Eigenfactor Score,Article Influence Score,URL,Full name,Centria Rank,AI,CS Applications,Software
INFORM SCIENCES,0020-0255,12028,3.893,3.969,0.64,602,4.9,0.02647,0.887,http://www.journals.elsevier.com/information-sciences/,Information Sciences,B,Q1,Q1,Q1
J INF TECHNOL,0268-3962,1282,3.789,4.917,0.476,21,6.4,0.00376,1.872,http://www.palgrave-journals.com/jit/index.html,Journal of Information Technology,A,,,
J ACM,0004-5411,4357,2.939,2.752,0.103,39,>10.0,0.00778,3.208,http://jacm.acm.org,Journal of the ACM,,Q1,,Q1
J MACH LEARN RES,1532-4435,7000,2.853,4.649,0.167,120,7.7,0.02925,3.281,http://jmlr.csail.mit.edu,Journal of Machine Learning Research,A,Q1,,Q1
ARTIF INTELL,0004-3702,5852,2.709,3.044,0.886,70,>10.0,0.00861,1.51,http://www.journals.elsevier.com/artificial-intelligence/,Artificial Intelligence,A*,Q1,,
IEEE COMPUT INTELL M,1556-603X,488,2.706,3.158,0.647,17,4.5,0.00182,1.146,http://ieeexplore.ieee.org/xpl/RecentIssue.jsp?punumber=10207,IEEE Computational Intelligence Magazine,,Q1,,
APPL SOFT COMPUT,1568-4946,4632,2.679,2.97,0.483,402,2.8,0.01543,0.707,http://www.journals.elsevier.com/applied-soft-computing/,Applied Soft Computing,C,,,Q1
IEEE T INFORM THEORY,0018-9448,31522,2.65,3.281,0.397,556,9.3,0.06214,1.529,http://ieeexplore.ieee.org/xpl/RecentIssue.jsp?punumber=18,IEEE Transactions on Information Theory,A*,,Q1,
IEEE T SOFTWARE ENG,0098-5589,4203,2.292,2.786,0.383,94,>10.0,0.00611,1.3,http://www.computer.org/portal/web/tse,IEEE Transactions on Software Engineering,A*,,,Q1
COMPUT STRUCT,0045-7949,9044,2.178,2.676,0.292,209,>10.0,0.01574,1.156,http://www.journals.elsevier.com/computers-and-structures/,Computers and Structures,,,Q1,
ADV ENG INFORM,1474-0346,925,2.068,2.126,0.224,49,4.8,0.0024,0.548,http://www.journals.elsevier.com/advanced-engineering-informatics/,Advanced Engineering Informatics,,Q1,,
Processing,
IEEE T SYST MAN CY-S,2168-2216,3158,2.169,2.565,0.244,119,6.4,0.00681,0.712,http://ieeexplore.ieee.org/xpl/RecentIssue.jsp?punumber=6221021,"IEEE Transactions on Systems, Man and Cybernetics Part C: Applications and Reviews",B,,Q1,Q1
Rejections,
FOUND COMPUT MATH,1615-3375,706,2.152,3.423,0.516,31,4.9,0.0072,3.501,http://link.springer.com/journal/10208,Foundations of Computational Mathematics,,,,
J AM SOC INF SCI TEC,1532-2882,5125,2.23,2.381,0.29,186,6.6,0.01317,0.842,https://www.asis.org/jasist.html,Journal of Information Science and Technology,C (?),NA,NA,NA
KNOWL INF SYST,0219-1377,1436,2.639,2.49,0.19,105,3.7,0.00447,0.661,http://www.springer.com/computer/information+systems+and+applications/journal/10115,Knowledge and Information Systems,B,Q1,,Q1

